---
http_interactions:
- request:
    method: get
    uri: https://api.synthfinance.com/rates/historical-range?date_end=2024-07-31&date_start=2024-01-01&from=USD&page=1&to=GBP
    body:
      encoding: US-ASCII
      string: ''
    headers:
      Authorization:
      - Bearer <SYNTH_API_KEY>
      X-Source:
      - maybe_app
      X-Source-Type:
      - managed
      User-Agent:
      - Faraday v2.13.1
      Accept-Encoding:
      - gzip;q=1.0,deflate;q=0.6,identity;q=0.3
      Accept:
      - "*/*"
  response:
    status:
      code: 200
      message: OK
    headers:
      Date:
      - Fri, 16 May 2025 13:01:36 GMT
      Content-Type:
      - application/json; charset=utf-8
    body:
      encoding: ASCII-8BIT
      string: '{"data":[{"date":"2024-01-01","rates":{"GBP":0.8}},{"date":"2024-01-02","rates":{"GBP":0.78}},{"date":"2024-01-03","rates":{"GBP":0.8}},{"date":"2024-01-04","rates":{"GBP":0.8}},{"date":"2024-01-05","rates":{"GBP":0.79}},{"date":"2024-01-06","rates":{"GBP":0.78}},{"date":"2024-01-07","rates":{"GBP":0.79}},{"date":"2024-01-08","rates":{"GBP":0.8}},{"date":"2024-01-09","rates":{"GBP":0.78}},{"date":"2024-01-10","rates":{"GBP":0.79}},{"date":"2024-01-11","rates":{"GBP":0.79}},{"date":"2024-01-12","rates":{"GBP":0.79}},{"date":"2024-01-13","rates":{"GBP":0.8}},{"date":"2024-01-14","rates":{"GBP":0.79}},{"date":"2024-01-15","rates":{"GBP":0.79}},{"date":"2024-01-16","rates":{"GBP":0.78}},{"date":"2024-01-17","rates":{"GBP":0.78}},{"date":"2024-01-18","rates":{"GBP":0.78}},{"date":"2024-01-19","rates":{"GBP":0.79}},{"date":"2024-01-20","rates":{"GBP":0.79}},{"date":"2024-01-21","rates":{"GBP":0.79}},{"date":"2024-01-22","rates":{"GBP":0.78}},{"date":"2024-01-23","rates":{"GBP":0.78}},{"date":"2024-01-24","rates":{"GBP":0.79}},{"date":"2024-01-25","rates":{"GBP":0.78}},{"date":"2024-01-26","rates":{"GBP":0.8}},{"date":"2024-01-27","rates":{"GBP":0.79}},{"date":"2024-01-28","rates":{"GBP":0.79}},{"date":"2024-01-29","rates":{"GBP":0.8}},{"date":"2024-01-30","rates":{"GBP":0.79}},{"date":"2024-01-31","rates":{"GBP":0.78}},{"date":"2024-02-01","rates":{"GBP":0.79}},{"date":"2024-02-02","rates":{"GBP":0.78}},{"date":"2024-02-03","rates":{"GBP":0.8}},{"date":"2024-02-04","rates":{"GBP":0.78}},{"date":"2024-02-05","rates":{"GBP":0.79}},{"date":"2024-02-06","rates":{"GBP":0.79}},{"date":"2024-02-07","rates":{"GBP":0.79}},{"date":"2024-02-08","rates":{"GBP":0.79}},{"date":"2024-02-09","rates":{"GBP":0.8}},{"date":"2024-02-10","rates":{"GBP":0.79}},{"date":"2024-02-11","rates":{"GBP":0.79}},{"date":"2024-02-12","rates":{"GBP":0.79}},{"date":"2024-02-13","rates":{"GBP":0.79}},{"date":"2024-02-14","rates":{"GBP":0.8}},{"date":"2024-02-15","rates":{"GBP":0.79}},{"date":"2024-02-16","rates":{"GBP":0.78}},{"date":"2024-02-17","rates":{"GBP":0.79}},{"date":"2024-02-18","rates":{"GBP":0.8}},{"date":"2024-02-19","rates":{"GBP":0.8}},{"date":"2024-02-20","rates":{"GBP":0.79}},{"date":"2024-02-21","rates":{"GBP":0.8}},{"date":"2024-02-22","rates":{"GBP":0.78}},{"date":"2024-02-23","rates":{"GBP":0.78}},{"date":"2024-02-24","rates":{"GBP":0.79}},{"date":"2024-02-25","rates":{"GBP":0.79}},{"date":"2024-02-26","rates":{"GBP":0.79}},{"date":"2024-02-27","rates":{"GBP":0.8}},{"date":"2024-02-28","rates":{"GBP":0.78}},{"date":"2024-02-29","rates":{"GBP":0.8}},{"date":"2024-03-01","rates":{"GBP":0.8}},{"date":"2024-03-02","rates":{"GBP":0.79}},{"date":"2024-03-03","rates":{"GBP":0.79}},{"date":"2024-03-04","rates":{"GBP":0.79}},{"date":"2024-03-05","rates":{"GBP":0.8}},{"date":"2024-03-06","rates":{"GBP":0.79}},{"date":"2024-03-07","rates":{"GBP":0.79}},{"date":"2024-03-08","rates":{"GBP":0.79}},{"date":"2024-03-09","rates":{"GBP":0.79}},{"date":"2024-03-10","rates":{"GBP":0.8}},{"date":"2024-03-11","rates":{"GBP":0.79}},{"date":"2024-03-12","rates":{"GBP":0.79}},{"date":"2024-03-13","rates":{"GBP":0.79}},{"date":"2024-03-14","rates":{"GBP":0.78}},{"date":"2024-03-15","rates":{"GBP":0.8}},{"date":"2024-03-16","rates":{"GBP":0.78}},{"date":"2024-03-17","rates":{"GBP":0.78}},{"date":"2024-03-18","rates":{"GBP":0.78}},{"date":"2024-03-19","rates":{"GBP":0.8}},{"date":"2024-03-20","rates":{"GBP":0.79}},{"date":"2024-03-21","rates":{"GBP":0.79}},{"date":"2024-03-22","rates":{"GBP":0.79}},{"date":"2024-03-23","rates":{"GBP":0.79}},{"date":"2024-03-24","rates":{"GBP":0.8}},{"date":"2024-03-25","rates":{"GBP":0.79}},{"date":"2024-03-26","rates":{"GBP":0.79}},{"date":"2024-03-27","rates":{"GBP":0.78}},{"date":"2024-03-28","rates":{"GBP":0.78}},{"date":"2024-03-29","rates":{"GBP":0.78}},{"date":"2024-03-30","rates":{"GBP":0.78}},{"date":"2024-03-31","rates":{"GBP":0.79}},{"date":"2024-04-01","rates":{"GBP":0.79}},{"date":"2024-04-02","rates":{"GBP":0.78}},{"date":"2024-04-03","rates":{"GBP":0.8}},{"date":"2024-04-04","rates":{"GBP":0.78}},{"date":"2024-04-05","rates":{"GBP":0.78}},{"date":"2024-04-06","rates":{"GBP":0.79}},{"date":"2024-04-07","rates":{"GBP":0.79}},{"date":"2024-04-08","rates":{"GBP":0.79}},{"date":"2024-04-09","rates":{"GBP":0.79}}],"paging":{"current_page":1,"total_pages":3,"total_records":213}}'
  recorded_at: Fri, 16 May 2025 13:01:36 GMT
- request:
    method: get
    uri: https://api.synthfinance.com/rates/historical-range?date_end=2024-07-31&date_start=2024-01-01&from=USD&page=2&to=GBP
    body:
      encoding: US-ASCII
      string: ''
    headers:
      Authorization:
      - Bearer <SYNTH_API_KEY>
      X-Source:
      - maybe_app
      X-Source-Type:
      - managed
      User-Agent:
      - Faraday v2.13.1
      Accept-Encoding:
      - gzip;q=1.0,deflate;q=0.6,identity;q=0.3
      Accept:
      - "*/*"
  response:
    status:
      code: 200
      message: OK
    headers:
      Date:
      - Fri, 16 May 2025 13:01:36 GMT
      Content-Type:
      - application/json; charset=utf-8
    body:
      encoding: ASCII-8BIT
      string: '{"data":[{"date":"2024-04-10","rates":{"GBP":0.8}},{"date":"2024-04-11","rates":{"GBP":0.79}},{"date":"2024-04-12","rates":{"GBP":0.79}},{"date":"2024-04-13","rates":{"GBP":0.8}},{"date":"2024-04-14","rates":{"GBP":0.78}},{"date":"2024-04-15","rates":{"GBP":0.79}},{"date":"2024-04-16","rates":{"GBP":0.79}},{"date":"2024-04-17","rates":{"GBP":0.79}},{"date":"2024-04-18","rates":{"GBP":0.8}},{"date":"2024-04-19","rates":{"GBP":0.79}},{"date":"2024-04-20","rates":{"GBP":0.8}},{"date":"2024-04-21","rates":{"GBP":0.8}},{"date":"2024-04-22","rates":{"GBP":0.79}},{"date":"2024-04-23","rates":{"GBP":0.8}},{"date":"2024-04-24","rates":{"GBP":0.8}},{"date":"2024-04-25","rates":{"GBP":0.79}},{"date":"2024-04-26","rates":{"GBP":0.8}},{"date":"2024-04-27","rates":{"GBP":0.8}},{"date":"2024-04-28","rates":{"GBP":0.79}},{"date":"2024-04-29","rates":{"GBP":0.8}},{"date":"2024-04-30","rates":{"GBP":0.79}},{"date":"2024-05-01","rates":{"GBP":0.8}},{"date":"2024-05-02","rates":{"GBP":0.8}},{"date":"2024-05-03","rates":{"GBP":0.79}},{"date":"2024-05-04","rates":{"GBP":0.8}},{"date":"2024-05-05","rates":{"GBP":0.78}},{"date":"2024-05-06","rates":{"GBP":0.79}},{"date":"2024-05-07","rates":{"GBP":0.8}},{"date":"2024-05-08","rates":{"GBP":0.78}},{"date":"2024-05-09","rates":{"GBP":0.78}},{"date":"2024-05-10","rates":{"GBP":0.78}},{"date":"2024-05-11","rates":{"GBP":0.78}},{"date":"2024-05-12","rates":{"GBP":0.79}},{"date":"2024-05-13","rates":{"GBP":0.78}},{"date":"2024-05-14","rates":{"GBP":0.79}},{"date":"2024-05-15","rates":{"GBP":0.79}},{"date":"2024-05-16","rates":{"GBP":0.8}},{"date":"2024-05-17","rates":{"GBP":0.8}},{"date":"2024-05-18","rates":{"GBP":0.78}},{"date":"2024-05-19","rates":{"GBP":0.79}},{"date":"2024-05-20","rates":{"GBP":0.79}},{"date":"2024-05-21","rates":{"GBP":0.8}},{"date":"2024-05-22","rates":{"GBP":0.79}},{"date":"2024-05-23","rates":{"GBP":0.8}},{"date":"2024-05-24","rates":{"GBP":0.79}},{"date":"2024-05-25","rates":{"GBP":0.78}},{"date":"2024-05-26","rates":{"GBP":0.8}},{"date":"2024-05-27","rates":{"GBP":0.79}},{"date":"2024-05-28","rates":{"GBP":0.79}},{"date":"2024-05-29","rates":{"GBP":0.79}},{"date":"2024-05-30","rates":{"GBP":0.79}},{"date":"2024-05-31","rates":{"GBP":0.79}},{"date":"2024-06-01","rates":{"GBP":0.79}},{"date":"2024-06-02","rates":{"GBP":0.79}},{"date":"2024-06-03","rates":{"GBP":0.78}},{"date":"2024-06-04","rates":{"GBP":0.8}},{"date":"2024-06-05","rates":{"GBP":0.78}},{"date":"2024-06-06","rates":{"GBP":0.79}},{"date":"2024-06-07","rates":{"GBP":0.79}},{"date":"2024-06-08","rates":{"GBP":0.8}},{"date":"2024-06-09","rates":{"GBP":0.79}},{"date":"2024-06-10","rates":{"GBP":0.78}},{"date":"2024-06-11","rates":{"GBP":0.8}},{"date":"2024-06-12","rates":{"GBP":0.79}},{"date":"2024-06-13","rates":{"GBP":0.79}},{"date":"2024-06-14","rates":{"GBP":0.79}},{"date":"2024-06-15","rates":{"GBP":0.79}},{"date":"2024-06-16","rates":{"GBP":0.79}},{"date":"2024-06-17","rates":{"GBP":0.8}},{"date":"2024-06-18","rates":{"GBP":0.79}},{"date":"2024-06-19","rates":{"GBP":0.78}},{"date":"2024-06-20","rates":{"GBP":0.79}},{"date":"2024-06-21","rates":{"GBP":0.79}},{"date":"2024-06-22","rates":{"GBP":0.78}},{"date":"2024-06-23","rates":{"GBP":0.78}},{"date":"2024-06-24","rates":{"GBP":0.78}},{"date":"2024-06-25","rates":{"GBP":0.79}},{"date":"2024-06-26","rates":{"GBP":0.78}},{"date":"2024-06-27","rates":{"GBP":0.8}},{"date":"2024-06-28","rates":{"GBP":0.79}},{"date":"2024-06-29","rates":{"GBP":0.79}},{"date":"2024-06-30","rates":{"GBP":0.79}},{"date":"2024-07-01","rates":{"GBP":0.8}},{"date":"2024-07-02","rates":{"GBP":0.8}},{"date":"2024-07-03","rates":{"GBP":0.8}},{"date":"2024-07-04","rates":{"GBP":0.78}},{"date":"2024-07-05","rates":{"GBP":0.79}},{"date":"2024-07-06","rates":{"GBP":0.8}},{"date":"2024-07-07","rates":{"GBP":0.79}},{"date":"2024-07-08","rates":{"GBP":0.79}},{"date":"2024-07-09","rates":{"GBP":0.79}},{"date":"2024-07-10","rates":{"GBP":0.79}},{"date":"2024-07-11","rates":{"GBP":0.8}},{"date":"2024-07-12","rates":{"GBP":0.79}},{"date":"2024-07-13","rates":{"GBP":0.78}},{"date":"2024-07-14","rates":{"GBP":0.78}},{"date":"2024-07-15","rates":{"GBP":0.78}},{"date":"2024-07-16","rates":{"GBP":0.79}},{"date":"2024-07-17","rates":{"GBP":0.78}},{"date":"2024-07-18","rates":{"GBP":0.8}}],"paging":{"current_page":2,"total_pages":3,"total_records":213}}'
  recorded_at: Fri, 16 May 2025 13:01:36 GMT
- request:
    method: get
    uri: https://api.synthfinance.com/rates/historical-range?date_end=2024-07-31&date_start=2024-01-01&from=USD&page=3&to=GBP
    body:
      encoding: US-ASCII
      string: ''
    headers:
      Authorization:
      - Bearer <SYNTH_API_KEY>
      X-Source:
      - maybe_app
      X-Source-Type:
      - managed
      User-Agent:
      - Faraday v2.13.1
      Accept-Encoding:
      - gzip;q=1.0,deflate;q=0.6,identity;q=0.3
      Accept:
      - "*/*"
  response:
    status:
      code: 200
      message: OK
    headers:
      Date:
      - Fri, 16 May 2025 13:01:36 GMT
      Content-Type:
      - application/json; charset=utf-8
    body:
      encoding: ASCII-8BIT
      string: '{"data":[{"date":"2024-07-19","rates":{"GBP":0.79}},{"date":"2024-07-20","rates":{"GBP":0.78}},{"date":"2024-07-21","rates":{"GBP":0.79}},{"date":"2024-07-22","rates":{"GBP":0.79}},{"date":"2024-07-23","rates":{"GBP":0.78}},{"date":"2024-07-24","rates":{"GBP":0.79}},{"date":"2024-07-25","rates":{"GBP":0.8}},{"date":"2024-07-26","rates":{"GBP":0.79}},{"date":"2024-07-27","rates":{"GBP":0.79}},{"date":"2024-07-28","rates":{"GBP":0.79}},{"date":"2024-07-29","rates":{"GBP":0.79}},{"date":"2024-07-30","rates":{"GBP":0.79}},{"date":"2024-07-31","rates":{"GBP":0.79}}],"paging":{"current_page":3,"total_pages":3,"total_records":213}}'
  recorded_at: Fri, 16 May 2025 13:01:36 GMT
recorded_with: VCR 6.3.1
