---
http_interactions:
- request:
    method: get
    uri: https://api.synthfinance.com/tickers/AAPL/open-close?end_date=2024-08-01&operating_mic_code=XNAS&page=1&start_date=2024-01-01
    body:
      encoding: US-ASCII
      string: ''
    headers:
      Authorization:
      - Bearer <SYNTH_API_KEY>
      X-Source:
      - maybe_app
      X-Source-Type:
      - managed
      User-Agent:
      - Faraday v2.13.1
      Accept-Encoding:
      - gzip;q=1.0,deflate;q=0.6,identity;q=0.3
      Accept:
      - "*/*"
  response:
    status:
      code: 200
      message: OK
    headers:
      Date:
      - Fri, 16 May 2025 13:01:36 GMT
      Content-Type:
      - application/json; charset=utf-8
    body:
      encoding: ASCII-8BIT
      string: '{"ticker":"AAPL","currency":"USD","exchange":{"name":"Nasdaq/Ngs (Global
        Select Market)","mic_code":"XNGS","operating_mic_code":"XNAS","acronym":"NGS","country":"United
        States","country_code":"US","timezone":"America/New_York"},"prices":[{"date":"2024-01-01","open":220.5,"close":220.77,"high":224.23,"low":219.47,"volume":63042556},{"date":"2024-01-02","open":220.81,"close":221.25,"high":224.58,"low":219.74,"volume":62601111},{"date":"2024-01-03","open":221.21,"close":222.31,"high":225.5,"low":220.4,"volume":62764716},{"date":"2024-01-04","open":222.74,"close":221.86,"high":225.31,"low":219.64,"volume":62741994},{"date":"2024-01-05","open":223.33,"close":223.29,"high":225.15,"low":221.81,"volume":63188091},{"date":"2024-01-08","open":223.58,"close":223.95,"high":227.41,"low":220.55,"volume":62771671},{"date":"2024-01-09","open":224.83,"close":224.53,"high":226.01,"low":222.54,"volume":62603435},{"date":"2024-01-10","open":225.0,"close":223.68,"high":228.19,"low":222.47,"volume":62709160},{"date":"2024-01-11","open":224.29,"close":225.19,"high":228.36,"low":223.67,"volume":63312586},{"date":"2024-01-12","open":224.62,"close":226.45,"high":228.7,"low":223.36,"volume":62921494},{"date":"2024-01-15","open":225.32,"close":225.52,"high":228.54,"low":224.28,"volume":62740067},{"date":"2024-01-16","open":226.97,"close":226.82,"high":230.36,"low":225.07,"volume":63394746},{"date":"2024-01-17","open":226.5,"close":226.47,"high":230.27,"low":224.92,"volume":62781825},{"date":"2024-01-18","open":227.17,"close":227.49,"high":229.63,"low":226.19,"volume":62983291},{"date":"2024-01-19","open":228.96,"close":227.77,"high":231.69,"low":226.51,"volume":63447472},{"date":"2024-01-22","open":227.86,"close":228.58,"high":232.42,"low":226.82,"volume":63184763},{"date":"2024-01-23","open":229.14,"close":229.35,"high":232.77,"low":227.6,"volume":63352654},{"date":"2024-01-24","open":228.79,"close":229.54,"high":232.06,"low":226.81,"volume":62691912},{"date":"2024-01-25","open":230.17,"close":230.19,"high":232.43,"low":227.89,"volume":62729450},{"date":"2024-01-26","open":231.25,"close":231.01,"high":233.68,"low":228.22,"volume":62866492},{"date":"2024-01-29","open":231.32,"close":231.09,"high":234.73,"low":228.5,"volume":63297627},{"date":"2024-01-30","open":231.61,"close":231.06,"high":234.52,"low":228.8,"volume":63458553},{"date":"2024-01-31","open":231.49,"close":231.85,"high":235.09,"low":229.54,"volume":63068356},{"date":"2024-02-01","open":232.33,"close":232.06,"high":235.95,"low":229.58,"volume":62890309},{"date":"2024-02-02","open":233.5,"close":233.28,"high":236.3,"low":231.96,"volume":62517513},{"date":"2024-02-05","open":234.1,"close":232.5,"high":236.11,"low":232.42,"volume":62506475},{"date":"2024-02-06","open":234.35,"close":233.1,"high":236.82,"low":231.03,"volume":62728446},{"date":"2024-02-07","open":234.96,"close":234.96,"high":237.55,"low":231.67,"volume":62638105},{"date":"2024-02-08","open":235.06,"close":235.66,"high":237.16,"low":232.39,"volume":63323356},{"date":"2024-02-09","open":236.47,"close":236.22,"high":237.77,"low":233.79,"volume":62511319},{"date":"2024-02-12","open":236.35,"close":235.63,"high":238.9,"low":233.97,"volume":63065639},{"date":"2024-02-13","open":236.43,"close":236.77,"high":240.0,"low":234.96,"volume":63053497},{"date":"2024-02-14","open":236.68,"close":237.49,"high":240.95,"low":234.21,"volume":62571016},{"date":"2024-02-15","open":238.16,"close":237.76,"high":240.76,"low":235.1,"volume":62893081},{"date":"2024-02-16","open":238.26,"close":238.91,"high":241.32,"low":236.99,"volume":63184789},{"date":"2024-02-19","open":238.16,"close":239.42,"high":240.66,"low":235.98,"volume":63487304},{"date":"2024-02-20","open":238.6,"close":239.96,"high":242.49,"low":237.68,"volume":63400331},{"date":"2024-02-21","open":238.65,"close":239.84,"high":242.83,"low":237.57,"volume":63397064},{"date":"2024-02-22","open":239.17,"close":239.08,"high":243.23,"low":238.01,"volume":62691418},{"date":"2024-02-23","open":241.34,"close":241.2,"high":243.75,"low":238.76,"volume":63045995},{"date":"2024-02-26","open":240.66,"close":240.78,"high":243.3,"low":238.92,"volume":62520282},{"date":"2024-02-27","open":241.29,"close":241.29,"high":244.76,"low":240.16,"volume":63253402},{"date":"2024-02-28","open":242.29,"close":241.36,"high":245.72,"low":239.15,"volume":63368665},{"date":"2024-02-29","open":241.67,"close":241.83,"high":245.6,"low":240.58,"volume":63101968},{"date":"2024-03-01","open":243.57,"close":242.22,"high":246.32,"low":240.1,"volume":63371549},{"date":"2024-03-04","open":243.68,"close":243.35,"high":245.87,"low":240.67,"volume":63206212},{"date":"2024-03-05","open":243.78,"close":243.46,"high":246.5,"low":242.93,"volume":63277460},{"date":"2024-03-06","open":244.98,"close":245.02,"high":248.05,"low":242.33,"volume":62748469},{"date":"2024-03-07","open":244.06,"close":246.0,"high":247.72,"low":242.38,"volume":63274604},{"date":"2024-03-08","open":245.46,"close":244.71,"high":247.55,"low":244.26,"volume":63238775},{"date":"2024-03-11","open":245.72,"close":245.12,"high":248.1,"low":243.05,"volume":62981812},{"date":"2024-03-12","open":245.69,"close":246.36,"high":250.28,"low":243.87,"volume":62542721},{"date":"2024-03-13","open":246.65,"close":247.26,"high":250.37,"low":244.42,"volume":63275617},{"date":"2024-03-14","open":246.78,"close":247.6,"high":251.23,"low":244.65,"volume":63175515},{"date":"2024-03-15","open":248.49,"close":247.94,"high":250.62,"low":246.72,"volume":62844022},{"date":"2024-03-18","open":249.02,"close":248.93,"high":250.57,"low":246.04,"volume":62882182},{"date":"2024-03-19","open":249.27,"close":248.3,"high":252.9,"low":246.93,"volume":62887798},{"date":"2024-03-20","open":250.27,"close":249.95,"high":252.03,"low":248.02,"volume":62794911},{"date":"2024-03-21","open":250.86,"close":250.31,"high":253.64,"low":248.77,"volume":63344236},{"date":"2024-03-22","open":251.38,"close":251.25,"high":252.64,"low":248.9,"volume":62731207},{"date":"2024-03-25","open":250.96,"close":250.16,"high":253.28,"low":248.24,"volume":63131719},{"date":"2024-03-26","open":250.59,"close":251.96,"high":255.31,"low":249.07,"volume":63241864},{"date":"2024-03-27","open":251.95,"close":251.68,"high":254.23,"low":250.73,"volume":62574529},{"date":"2024-03-28","open":251.84,"close":253.17,"high":256.11,"low":249.52,"volume":63300032},{"date":"2024-03-29","open":253.4,"close":252.38,"high":255.68,"low":250.71,"volume":62905319},{"date":"2024-04-01","open":253.67,"close":253.76,"high":256.53,"low":250.83,"volume":62780603},{"date":"2024-04-02","open":254.28,"close":254.64,"high":257.09,"low":252.14,"volume":63266560},{"date":"2024-04-03","open":255.16,"close":254.68,"high":256.99,"low":252.75,"volume":63223272},{"date":"2024-04-04","open":255.43,"close":255.96,"high":257.19,"low":252.32,"volume":62555463},{"date":"2024-04-05","open":256.09,"close":255.67,"high":258.79,"low":254.22,"volume":62690766},{"date":"2024-04-08","open":256.41,"close":256.42,"high":259.08,"low":253.44,"volume":63330758},{"date":"2024-04-09","open":256.88,"close":257.09,"high":260.01,"low":253.82,"volume":62834683},{"date":"2024-04-10","open":256.03,"close":256.06,"high":259.49,"low":255.66,"volume":63007851},{"date":"2024-04-11","open":256.8,"close":258.48,"high":260.6,"low":255.57,"volume":63441518},{"date":"2024-04-12","open":257.06,"close":257.52,"high":260.98,"low":256.46,"volume":63437353},{"date":"2024-04-15","open":258.75,"close":258.21,"high":260.68,"low":257.37,"volume":62947530},{"date":"2024-04-16","open":259.54,"close":258.9,"high":262.41,"low":257.18,"volume":62786798},{"date":"2024-04-17","open":259.91,"close":260.46,"high":262.38,"low":257.58,"volume":63191113},{"date":"2024-04-18","open":259.92,"close":259.43,"high":263.01,"low":257.77,"volume":62641708},{"date":"2024-04-19","open":259.52,"close":260.8,"high":263.86,"low":258.31,"volume":62660759},{"date":"2024-04-22","open":260.56,"close":261.73,"high":263.3,"low":258.69,"volume":62642679},{"date":"2024-04-23","open":261.6,"close":262.1,"high":265.01,"low":258.94,"volume":63458229},{"date":"2024-04-24","open":262.58,"close":261.5,"high":265.89,"low":259.88,"volume":62820118},{"date":"2024-04-25","open":261.97,"close":261.84,"high":265.67,"low":260.47,"volume":63331802},{"date":"2024-04-26","open":263.71,"close":263.54,"high":266.36,"low":261.12,"volume":63361822},{"date":"2024-04-29","open":262.85,"close":264.23,"high":267.29,"low":261.73,"volume":62543444},{"date":"2024-04-30","open":263.9,"close":264.33,"high":266.57,"low":262.2,"volume":62840569},{"date":"2024-05-01","open":264.76,"close":264.65,"high":267.56,"low":261.81,"volume":63392284},{"date":"2024-05-02","open":264.55,"close":265.95,"high":267.44,"low":262.55,"volume":63065134},{"date":"2024-05-03","open":266.27,"close":264.95,"high":268.12,"low":262.65,"volume":62694724},{"date":"2024-05-06","open":265.49,"close":265.19,"high":268.56,"low":263.91,"volume":63065569},{"date":"2024-05-07","open":267.12,"close":267.13,"high":268.71,"low":265.2,"volume":63083036},{"date":"2024-05-08","open":267.01,"close":266.19,"high":270.2,"low":264.22,"volume":62701812},{"date":"2024-05-09","open":268.1,"close":267.98,"high":269.54,"low":266.08,"volume":63035461},{"date":"2024-05-10","open":269.0,"close":268.12,"high":270.25,"low":266.93,"volume":62688382},{"date":"2024-05-13","open":268.61,"close":268.52,"high":271.13,"low":266.25,"volume":63434942},{"date":"2024-05-14","open":268.18,"close":268.22,"high":272.15,"low":267.37,"volume":62506341},{"date":"2024-05-15","open":268.78,"close":269.89,"high":272.85,"low":266.62,"volume":62892071},{"date":"2024-05-16","open":270.64,"close":269.72,"high":273.85,"low":268.23,"volume":62944116},{"date":"2024-05-17","open":271.4,"close":270.98,"high":272.75,"low":269.49,"volume":62615633}],"paging":{"prev":null,"next":"/tickers/AAPL/open-close?end_date=2024-08-01&operating_mic_code=XNAS&page=2&start_date=2024-01-01","total_records":147,"current_page":1,"per_page":100,"total_pages":2},"meta":{"total_records":147,"credits_used":1,"credits_remaining":249738}}'
  recorded_at: Fri, 16 May 2025 13:01:36 GMT
- request:
    method: get
    uri: https://api.synthfinance.com/tickers/AAPL/open-close?end_date=2024-08-01&operating_mic_code=XNAS&page=2&start_date=2024-01-01
    body:
      encoding: US-ASCII
      string: ''
    headers:
      Authorization:
      - Bearer <SYNTH_API_KEY>
      X-Source:
      - maybe_app
      X-Source-Type:
      - managed
      User-Agent:
      - Faraday v2.13.1
      Accept-Encoding:
      - gzip;q=1.0,deflate;q=0.6,identity;q=0.3
      Accept:
      - "*/*"
  response:
    status:
      code: 200
      message: OK
    headers:
      Date:
      - Fri, 16 May 2025 13:01:36 GMT
      Content-Type:
      - application/json; charset=utf-8
    body:
      encoding: ASCII-8BIT
      string: '{"ticker":"AAPL","currency":"USD","exchange":{"name":"Nasdaq/Ngs (Global
        Select Market)","mic_code":"XNGS","operating_mic_code":"XNAS","acronym":"NGS","country":"United
        States","country_code":"US","timezone":"America/New_York"},"prices":[{"date":"2024-05-20","open":271.36,"close":271.79,"high":273.1,"low":269.78,"volume":63236126},{"date":"2024-05-21","open":272.43,"close":270.72,"high":273.66,"low":270.32,"volume":62681989},{"date":"2024-05-22","open":271.16,"close":272.24,"high":275.17,"low":270.49,"volume":62995227},{"date":"2024-05-23","open":273.01,"close":271.57,"high":275.77,"low":270.49,"volume":63098676},{"date":"2024-05-24","open":272.53,"close":272.54,"high":275.43,"low":270.52,"volume":63394090},{"date":"2024-05-27","open":272.8,"close":274.12,"high":276.93,"low":270.73,"volume":62542659},{"date":"2024-05-28","open":273.5,"close":274.77,"high":276.39,"low":272.63,"volume":62527237},{"date":"2024-05-29","open":273.75,"close":274.94,"high":278.38,"low":272.06,"volume":63119905},{"date":"2024-05-30","open":275.68,"close":275.67,"high":278.18,"low":272.91,"volume":62735243},{"date":"2024-05-31","open":275.67,"close":275.9,"high":279.29,"low":272.81,"volume":63370657},{"date":"2024-06-03","open":275.99,"close":276.81,"high":279.5,"low":273.53,"volume":63366515},{"date":"2024-06-04","open":276.06,"close":277.11,"high":279.73,"low":274.78,"volume":62510912},{"date":"2024-06-05","open":277.05,"close":277.53,"high":280.73,"low":275.35,"volume":63186480},{"date":"2024-06-06","open":276.56,"close":277.69,"high":279.68,"low":276.41,"volume":63383104},{"date":"2024-06-07","open":277.46,"close":278.55,"high":281.07,"low":276.3,"volume":62779828},{"date":"2024-06-10","open":277.64,"close":278.09,"high":280.56,"low":275.84,"volume":62697015},{"date":"2024-06-11","open":279.49,"close":278.96,"high":282.68,"low":277.67,"volume":62977474},{"date":"2024-06-12","open":280.43,"close":278.99,"high":283.45,"low":277.76,"volume":63035297},{"date":"2024-06-13","open":279.1,"close":280.11,"high":282.03,"low":278.22,"volume":63022573},{"date":"2024-06-14","open":280.44,"close":281.03,"high":282.84,"low":277.83,"volume":62783643},{"date":"2024-06-17","open":280.53,"close":280.74,"high":283.64,"low":279.0,"volume":62853964},{"date":"2024-06-18","open":281.47,"close":280.67,"high":284.02,"low":278.82,"volume":62954897},{"date":"2024-06-19","open":282.05,"close":281.17,"high":285.11,"low":279.31,"volume":63182741},{"date":"2024-06-20","open":282.18,"close":282.02,"high":284.87,"low":279.56,"volume":62626324},{"date":"2024-06-21","open":283.8,"close":282.74,"high":286.98,"low":281.96,"volume":63203252},{"date":"2024-06-24","open":283.48,"close":283.61,"high":287.38,"low":281.99,"volume":63022532},{"date":"2024-06-25","open":284.07,"close":283.09,"high":287.44,"low":281.87,"volume":63194316},{"date":"2024-06-26","open":284.14,"close":284.38,"high":287.79,"low":282.38,"volume":63323191},{"date":"2024-06-27","open":285.44,"close":285.99,"high":288.25,"low":282.11,"volume":62880795},{"date":"2024-06-28","open":285.47,"close":286.2,"high":289.14,"low":282.87,"volume":62614735},{"date":"2024-07-01","open":285.45,"close":285.35,"high":289.83,"low":283.16,"volume":62584727},{"date":"2024-07-02","open":287.13,"close":286.67,"high":289.12,"low":284.98,"volume":62839766},{"date":"2024-07-03","open":286.89,"close":286.53,"high":289.87,"low":284.65,"volume":62787577},{"date":"2024-07-04","open":288.4,"close":288.26,"high":290.02,"low":286.26,"volume":63103922},{"date":"2024-07-05","open":288.3,"close":288.14,"high":291.02,"low":286.13,"volume":63232790},{"date":"2024-07-08","open":288.63,"close":288.19,"high":290.83,"low":286.32,"volume":62901398},{"date":"2024-07-09","open":288.55,"close":288.15,"high":291.89,"low":286.94,"volume":63018611},{"date":"2024-07-10","open":289.84,"close":288.79,"high":292.69,"low":287.27,"volume":63075896},{"date":"2024-07-11","open":289.48,"close":289.01,"high":293.21,"low":287.21,"volume":62993422},{"date":"2024-07-12","open":290.09,"close":289.57,"high":292.57,"low":287.96,"volume":62565174},{"date":"2024-07-15","open":291.47,"close":290.35,"high":293.49,"low":289.77,"volume":62644611},{"date":"2024-07-16","open":291.19,"close":292.44,"high":294.65,"low":289.89,"volume":62530149},{"date":"2024-07-17","open":292.53,"close":291.87,"high":294.93,"low":290.64,"volume":62893492},{"date":"2024-07-18","open":291.51,"close":292.07,"high":295.93,"low":290.58,"volume":62573710},{"date":"2024-07-19","open":292.8,"close":293.29,"high":296.05,"low":290.05,"volume":62843229},{"date":"2024-07-22","open":294.43,"close":292.6,"high":296.65,"low":292.4,"volume":62621919},{"date":"2024-07-23","open":293.42,"close":294.16,"high":297.11,"low":292.88,"volume":63139700}],"paging":{"prev":"/tickers/AAPL/open-close?end_date=2024-08-01&operating_mic_code=XNAS&page=1&start_date=2024-01-01","next":null,"total_records":147,"current_page":2,"per_page":100,"total_pages":2},"meta":{"total_records":147,"credits_used":1,"credits_remaining":249738}}'
  recorded_at: Fri, 16 May 2025 13:01:36 GMT
recorded_with: VCR 6.3.1
